Relationship between Number of Starbucks store and Prosperity
…
The fourth dataset we used is happiness.csv from https://www.kaggle.com/unsdsn/world-happiness?select=2017.csv. There are two significant indicators in this dataset, which are happiness ranking of the countries worldwide and the happiness score of the those countries. These happiness scores and ranking use data from the Gallup World Poll. The happiness scores are entirely based on answers to the main life evalution question answered by respondents asked in the poll and the happiness ranking are assgined to each countries based on the scores.

The fifth dataset we used is economic.csv from https://www.kaggle.com/nottisani/worldwide-economics-gdp updated by Gabriela McDavid. The dataset includes a number of variables that help us to get a sense of the economic status of countires worldwide such as the net GDP and the size of the population.

The last dataset we used is gdpstate.csv from https://www.bea.gov/data/gdp/gdp-state.

2) Data Cleaning

Firstly, we cleaned up six dataset separately in order to select variables that we needed to address the topic of our research and curiousity. In addition, since the original dataset we used have their own distinct form of a data frame, we tidyed up each dataset having similar form of a data frame in order for us to combine the dataset and make the single data frame for the analysis. We made the two data frames, one for the analysis of the number of Starbucks in countries worldwide and its relation to the indicators of the overall quality of life, which are the net GDP, happiness score, cost of living, rent, quality of life index, safety index and the size of population and the other for the analysis of the number of Starbucks in 50 states of United States and its association with the net GDP of each states (We conducted this analysis because the United States is a huge outlier when it comes to the number of Starbucks stores and the net GDP).

Most importantly, for the orginal directory.csv dataset, the country names were recorded as an abbreviation such as KR for South Korea and JP for Japan, so we revised the name of the countries into their full name. Also, there were some errors in the name of the countries so that we couldnt count the number of Starbucks stores in each countries properly. In order to address this type of error, we looked into the variables of Street address, City, Province, and Postcode and figured out that some country names like South Korea, China and Japan were in these variables, not in the column of Country. After fixing this error, we counted the number of Starbucks based on the countries and made a new data frame named starbucks. 
 Without huge difficulties, we cleaned up the rest of the dataset and combined them with the newly made starbucks dataframe (the number of Starbucks in each countries). In order to analyze the number of Starbucks in each states in the United States and its association with GDP of each states, we only filtered out the country of United States in the data frame of starbucks and made a new column of states. Lastly, we recounted the number of Starbucks stores based on the states and combine this data frame with the gdpstate.csv.

 # # A tibble: 54 x 9
 #    Country starbucks   GDP Happiness.Score Cost_of_living  Rent Quality.of.Life~
 #    <chr>       <int> <int>           <dbl>          <dbl> <dbl>            <dbl>
 #  1 SLOVAK~         3    87            6.10           44.5 16.1              153.
 #  2 SOUTH ~         3   315            4.83           42.9 16.6              132.
 #  3 BULGAR~         5    50            4.71           36.7  9.64             130.
 #  4 PANAMA          5    52            6.45           54.2 24.8              108.
 #  5 FINLAND         8   232            7.47           70.3 26.2              190.
 #  6 MOROCCO         9   101            5.24           34.3  8.94             105.
 #  7 CYPRUS         10    19            5.62           57.9 20.5              148.
 #  8 COLOMB~        11   292            6.36           30.7  9.58             106.
 #  9 PORTUG~        11   199            5.20           49.5 21.8              163.
 # 10 HUNGARY        16   122            5.32           40.8 14.0              128.
 # # ... with 44 more rows, and 2 more variables: Safety.Index <dbl>,
 # #   Population <dbl>
…
